<svg width="200" height="200" viewBox="0 0 200 200" fill="none" xmlns="http://www.w3.org/2000/svg">
<path d="M71.2347 123.692V131.835H67.9067V123.692H71.2347V123.692ZM69.5802 120.059C70.0319 120.059 70.4217 120.202 70.7498 120.497C71.0778 120.787 71.2442 121.129 71.2442 121.528C71.2442 121.952 71.0873 122.299 70.7783 122.574C70.4645 122.845 70.0652 122.983 69.5802 122.983C69.0953 122.983 68.6912 122.845 68.3822 122.574C68.0684 122.299 67.9115 121.952 67.9115 121.528C67.9115 121.129 68.0779 120.787 68.4059 120.497C68.734 120.202 69.1238 120.059 69.5755 120.059H69.5802Z" fill="#0B2E4C"/>
<path d="M77.0585 123.886V131.836H73.4453V120.682H78.1567C80.2201 120.682 81.8365 121.115 83.0108 121.971C84.399 122.997 85.0931 124.4 85.0931 126.164C85.0931 127.928 84.4988 129.23 83.3103 130.295C82.1217 131.36 80.5956 131.897 78.7225 131.897C78.5038 131.897 78.1425 131.883 77.648 131.864V128.588H78.228C80.3342 128.588 81.3896 127.78 81.3896 126.164C81.3896 124.642 80.3532 123.882 78.2803 123.882H77.0585V123.886Z" fill="#0B2E4C"/>
<path d="M93.2703 125.023V127.504H90.9122C90.5937 127.504 90.3655 127.547 90.2323 127.638C90.0992 127.723 90.0327 127.87 90.0327 128.08C90.0327 128.313 90.0992 128.47 90.2371 128.541C90.375 128.617 90.6507 128.65 91.0738 128.65H93.5032V131.836H90.6602C89.3243 131.836 88.3069 131.541 87.5985 130.956C86.8901 130.371 86.5383 129.525 86.5383 128.422V124.048C86.5383 122.983 86.8711 122.151 87.5415 121.566C88.2118 120.977 89.1484 120.687 90.3607 120.687H93.5032V123.886H91.1975C90.5747 123.886 90.2609 124.072 90.2609 124.443C90.2609 124.661 90.3369 124.814 90.4843 124.899C90.6317 124.985 90.8979 125.027 91.2783 125.027H93.2703V125.023Z" fill="#0B2E4C"/>
<path d="M99.9835 126.24V129.183H98.9423V131.84H95.3291V124.752C95.3291 123.378 95.738 122.313 96.5509 121.552C97.3687 120.796 98.5144 120.411 99.993 120.411C101.472 120.411 102.47 120.758 103.155 121.448C103.839 122.132 104.177 123.197 104.177 124.638V131.84H100.559V124.856C100.559 124.424 100.502 124.119 100.392 123.953C100.278 123.782 100.079 123.696 99.7886 123.696C99.2228 123.696 98.9423 124.086 98.9423 124.856V126.245H99.9835V126.24Z" fill="#0B2E4C"/>
<path d="M106.116 120.687H109.729V127.314C109.729 127.832 109.82 128.175 110 128.346C110.181 128.517 110.538 128.603 111.075 128.603H111.26V131.836H110.3C108.983 131.836 107.956 131.484 107.219 130.775C106.482 130.072 106.116 129.092 106.116 127.837V120.682V120.687Z" fill="#0B2E4C"/>
<path d="M120.655 120.687V131.84H117.042V120.687H120.655V120.687Z" fill="#0B2E4C"/>
<path d="M130.748 131.836H127.42V127.233C127.42 126.768 127.211 126.53 126.788 126.53C126.365 126.53 126.165 126.763 126.165 127.233V131.836H122.837V127.295C122.837 126.235 123.217 125.337 123.987 124.614C124.753 123.886 125.689 123.52 126.802 123.52C128.071 123.52 129.089 123.944 129.854 124.785C130.453 125.446 130.753 126.363 130.753 127.538V131.836H130.748Z" fill="#0B2E4C"/>
<path d="M140.603 131.836H137.275V127.233C137.275 126.768 137.066 126.53 136.643 126.53C136.22 126.53 136.02 126.763 136.02 127.233V131.836H132.692V127.295C132.692 126.235 133.073 125.337 133.843 124.614C134.608 123.886 135.545 123.52 136.657 123.52C137.927 123.52 138.944 123.944 139.71 124.785C140.309 125.446 140.608 126.363 140.608 127.538V131.836H140.603Z" fill="#0B2E4C"/>
<path d="M146.755 123.52C148.015 123.52 149.089 123.934 149.993 124.766C150.891 125.598 151.338 126.592 151.338 127.752C151.338 128.912 150.882 129.929 149.974 130.756C149.061 131.584 147.963 131.997 146.674 131.997C145.386 131.997 144.283 131.584 143.37 130.752C142.457 129.92 142.001 128.916 142.001 127.747C142.001 126.577 142.457 125.55 143.37 124.737C144.283 123.92 145.41 123.516 146.755 123.516V123.52ZM146.665 126.535C146.308 126.535 146.009 126.653 145.757 126.891C145.51 127.129 145.381 127.419 145.381 127.761C145.381 128.103 145.51 128.389 145.762 128.626C146.014 128.869 146.318 128.988 146.665 128.988C147.012 128.988 147.326 128.869 147.578 128.626C147.83 128.389 147.953 128.099 147.953 127.761C147.953 127.424 147.83 127.129 147.582 126.891C147.33 126.653 147.026 126.535 146.665 126.535V126.535Z" fill="#0B2E4C"/>
<path d="M159.401 123.692L155.251 132.154L151.153 123.692H154.333L155.279 125.888L156.311 123.692H159.401Z" fill="#0B2E4C"/>
<path d="M164.688 128.783V131.945C164.417 131.992 164.165 132.011 163.942 132.011C162.606 132.011 161.493 131.612 160.604 130.804C159.715 130 159.268 128.988 159.268 127.775C159.268 126.563 159.72 125.588 160.619 124.771C161.517 123.948 162.611 123.535 163.899 123.535C165.335 123.535 166.466 123.92 167.293 124.69C168.121 125.46 168.534 126.516 168.534 127.847V131.845H165.206V128.07C165.206 127.638 165.092 127.295 164.864 127.039C164.636 126.782 164.332 126.653 163.942 126.653C163.59 126.653 163.29 126.772 163.034 127.005C162.777 127.238 162.649 127.514 162.649 127.837C162.649 128.161 162.763 128.451 162.996 128.669C163.224 128.883 163.519 128.997 163.875 128.997C164.165 128.997 164.436 128.926 164.688 128.783V128.783Z" fill="#231815"/>
<path d="M173.44 120.687V123.806H174.933V127.034H173.44C173.44 127.68 173.55 128.127 173.773 128.374C173.997 128.622 174.406 128.741 174.995 128.741V131.954C174.824 131.954 174.696 131.959 174.615 131.959C173.864 131.959 173.15 131.797 172.485 131.479C171.819 131.156 171.282 130.723 170.878 130.172C170.369 129.468 170.113 128.536 170.113 127.376V120.687H173.44V120.687Z" fill="#0B2E4C"/>
<path d="M179.901 123.692V131.836H176.573V123.692H179.901V123.692ZM178.247 120.059C178.699 120.059 179.088 120.202 179.417 120.497C179.745 120.787 179.911 121.129 179.911 121.528C179.911 121.952 179.754 122.299 179.445 122.574C179.131 122.845 178.732 122.983 178.247 122.983C177.762 122.983 177.358 122.845 177.049 122.574C176.735 122.299 176.578 121.952 176.578 121.528C176.578 121.129 176.745 120.787 177.073 120.497C177.401 120.202 177.791 120.059 178.242 120.059H178.247Z" fill="#0B2E4C"/>
<path d="M186.073 123.52C187.333 123.52 188.407 123.934 189.31 124.766C190.209 125.598 190.66 126.592 190.66 127.752C190.66 128.912 190.204 129.929 189.296 130.756C188.383 131.584 187.285 131.997 185.997 131.997C184.708 131.997 183.605 131.584 182.692 130.752C181.775 129.92 181.323 128.916 181.323 127.747C181.323 126.577 181.78 125.55 182.692 124.737C183.605 123.92 184.732 123.516 186.077 123.516L186.073 123.52ZM185.982 126.535C185.626 126.535 185.326 126.653 185.074 126.891C184.827 127.129 184.699 127.419 184.699 127.761C184.699 128.103 184.827 128.389 185.079 128.626C185.331 128.869 185.631 128.988 185.982 128.988C186.334 128.988 186.643 128.869 186.895 128.626C187.147 128.389 187.271 128.099 187.271 127.761C187.271 127.424 187.147 127.129 186.895 126.891C186.643 126.653 186.339 126.535 185.978 126.535H185.982Z" fill="#0B2E4C"/>
<path d="M199.96 131.836H196.632V127.233C196.632 126.768 196.422 126.53 195.999 126.53C195.576 126.53 195.377 126.763 195.377 127.233V131.836H192.049V127.295C192.049 126.235 192.429 125.337 193.194 124.614C193.96 123.886 194.896 123.52 196.009 123.52C197.278 123.52 198.296 123.944 199.061 124.785C199.66 125.446 199.96 126.363 199.96 127.538V131.836V131.836Z" fill="#0B2E4C"/>
<path d="M19.5708 114.426L0.102295 108.735V68.1862L19.5708 73.8722V114.426Z" fill="#C9BC9C"/>
<path fill-rule="evenodd" clip-rule="evenodd" d="M0.0617676 68.1323L19.6111 73.8419V114.48L0.0617676 108.765V68.1323ZM0.142589 68.2401V108.705L19.5302 114.372V73.9025L0.142589 68.2401Z" fill="#231815"/>
<path d="M19.5135 114.63L0.0402832 115.01V74.457L19.5135 74.0814V114.63Z" fill="#E4007F"/>
<path fill-rule="evenodd" clip-rule="evenodd" d="M19.5541 74.0402V114.67L0 115.052V74.4173L19.5541 74.0402ZM0.0808215 74.4966V114.969L19.4732 114.59V74.1226L0.0808215 74.4966Z" fill="#231815"/>
<path d="M24.0537 67.8629V114.131H44.9009L62.5675 98.5846V84.7213L43.4984 67.8629H24.0537Z" fill="#036EB8"/>
<path fill-rule="evenodd" clip-rule="evenodd" d="M24.0134 67.8225H43.5138L62.6081 84.7031V98.6028L44.9163 114.171H24.0134V67.8225ZM24.0942 67.9033V114.09H44.8858L62.5273 98.5663V84.7395L43.4832 67.9033H24.0942Z" fill="#231815"/>
<path d="M43.6125 68.1101L43.8503 86.4423L62.3204 84.5977L43.6125 68.1101Z" fill="#171C61"/>
<path fill-rule="evenodd" clip-rule="evenodd" d="M43.571 68.0196L62.4167 84.6287L43.8105 86.4869L43.571 68.0196ZM43.6542 68.2006L43.8902 86.3977L62.2241 84.5667L43.6542 68.2006Z" fill="#231815"/>
<path d="M45.2527 114.112L47.007 95.7368L62.3441 98.6749L45.2527 114.112Z" fill="#C9BC9C"/>
<path fill-rule="evenodd" clip-rule="evenodd" d="M46.971 95.6888L62.4315 98.6505L45.2026 114.212L46.971 95.6888ZM47.0431 95.7848L45.3029 114.012L62.2568 98.6993L47.0431 95.7848Z" fill="#231815"/>
<path d="M87.7173 97.2819L106.877 97.339L106.934 84.2031L87.2276 84.2411L91.1356 68.1719H66.7512V114.44H91.1356L87.7173 97.2819Z" fill="#006934"/>
<path fill-rule="evenodd" clip-rule="evenodd" d="M66.7109 68.1315H91.1871L87.2792 84.2006L106.974 84.1626L106.917 97.3795L87.7667 97.3225L91.1849 114.48H66.7109V68.1315ZM66.7918 68.2123V114.399H91.0864L87.6681 97.2414L106.837 97.2985L106.893 84.2436L87.1763 84.2817L91.0843 68.2123H66.7918Z" fill="#231815"/>
<path d="M87.2277 84.2411L104.129 68.8423L85.7253 67.4588L87.2277 84.2411Z" fill="#036EB8"/>
<path fill-rule="evenodd" clip-rule="evenodd" d="M85.6809 67.4149L104.225 68.809L87.1948 84.3259L85.6809 67.4149ZM85.7699 67.5026L87.2607 84.1564L104.032 68.8755L85.7699 67.5026Z" fill="#231815"/>
<path d="M87.7174 97.4578L106.321 115.015L85.9631 115.025L87.7174 97.4578Z" fill="#F39800"/>
<path fill-rule="evenodd" clip-rule="evenodd" d="M87.6854 97.372L106.422 115.055L85.9185 115.065L87.6854 97.372ZM87.7495 97.5436L86.0078 114.984L106.219 114.975L87.7495 97.5436Z" fill="#231815"/>
<path d="M111.008 114.697H154.153V105.445L134.546 67.0404H130.662L111.008 105.445V114.697Z" fill="#036EB8"/>
<path fill-rule="evenodd" clip-rule="evenodd" d="M130.638 67H134.571L154.193 105.435V114.737H110.968V105.435L130.638 67ZM130.687 67.0808L111.049 105.455V114.656H154.112V105.455L134.522 67.0808H130.687Z" fill="#231815"/>
<path d="M154.11 105.45L125.571 83.1572L134.547 67.2163L154.11 105.45Z" fill="#E4007F"/>
<path fill-rule="evenodd" clip-rule="evenodd" d="M134.548 67.1309L154.146 105.431L154.085 105.481L125.518 83.1676L134.548 67.1309ZM125.623 83.1467L153.991 105.305L134.545 67.3017L125.623 83.1467Z" fill="#231815"/>
<path d="M130.662 67.2163L140.679 82.5439L111.084 105.34L130.662 67.2163Z" fill="#171C61"/>
<path fill-rule="evenodd" clip-rule="evenodd" d="M130.658 67.136L140.734 82.5531L111.109 105.372L111.049 105.322L130.658 67.136ZM130.667 67.2966L111.203 105.198L140.625 82.5347L130.667 67.2966Z" fill="#231815"/>
<path d="M199.959 102.212V114.968H159.183V67.5016L179.05 67.6442L179.26 102.212H199.959Z" fill="#F39800"/>
<path fill-rule="evenodd" clip-rule="evenodd" d="M159.142 67.4609L179.091 67.6041L179.3 102.172H200V115.008H159.142V67.4609ZM159.223 67.5423V114.927H199.919V102.252H179.22L179.01 67.6843L159.223 67.5423Z" fill="#231815"/>
<path d="M179.051 67.6442L165.667 70.9864V105.283L179.26 102.212L179.051 67.6442Z" fill="#171C61"/>
<path fill-rule="evenodd" clip-rule="evenodd" d="M179.091 67.5925L179.3 102.244L165.627 105.334V70.9548L179.091 67.5925ZM165.708 71.018V105.233L179.219 102.18L179.011 67.6959L165.708 71.018Z" fill="#231815"/>
<path d="M165.667 70.9864L173.193 73.4966V106.538L165.667 105.283V70.9864Z" fill="#036EB8"/>
<path fill-rule="evenodd" clip-rule="evenodd" d="M165.627 70.9303L173.234 73.4675V106.586L165.627 105.317V70.9303ZM165.708 71.0425V105.249L173.153 106.491V73.5258L165.708 71.0425Z" fill="#231815"/>
</svg>
